%YAML 1.1
%TAG !u! tag:unity3d.com,2011:
--- !u!1 &1089097054479000
GameObject:
  m_ObjectHideFlags: 0
  m_PrefabParentObject: {fileID: 0}
  m_PrefabInternal: {fileID: 0}
  serializedVersion: 5
  m_Component:
  - component: {fileID: 4083819547090652}
  - component: {fileID: 114524177903336612}
  m_Layer: 0
  m_Name: Sounds
  m_TagString: Untagged
  m_Icon: {fileID: 0}
  m_NavMeshLayer: 0
  m_StaticEditorFlags: 0
  m_IsActive: 1
--- !u!4 &4083819547090652
Transform:
  m_ObjectHideFlags: 1
  m_PrefabParentObject: {fileID: 0}
  m_PrefabInternal: {fileID: 0}
  m_GameObject: {fileID: 1089097054479000}
  m_LocalRotation: {x: 0, y: 0, z: 0, w: 1}
  m_LocalPosition: {x: 0, y: 0, z: 0}
  m_LocalScale: {x: 1, y: 1, z: 1}
  m_Children: []
  m_Father: {fileID: 0}
  m_RootOrder: 0
  m_LocalEulerAnglesHint: {x: 0, y: 0, z: 0}
--- !u!114 &114524177903336612
MonoBehaviour:
  m_ObjectHideFlags: 1
  m_PrefabParentObject: {fileID: 0}
  m_PrefabInternal: {fileID: 0}
  m_GameObject: {fileID: 1089097054479000}
  m_Enabled: 1
  m_EditorHideFlags: 0
  m_Script: {fileID: 11500000, guid: 649e1ab2cf566f844a0963cef68bf711, type: 3}
  m_Name: 
  m_EditorClassIdentifier: 
  sounds:
  - {fileID: 8300000, guid: c8edf3d94724f514bb675a405807fc6a, type: 3}
  - {fileID: 8300000, guid: 0781422da85a67e41bd9983a1a71ee32, type: 3}
  - {fileID: 8300000, guid: c8edf3d94724f514bb675a405807fc6a, type: 3}
  - {fileID: 8300000, guid: b27814f118ce2054f95dfc62cfec75c0, type: 3}
  - {fileID: 8300000, guid: 4a39aba5222a7fe44893d62a5900004e, type: 3}
  - {fileID: 8300000, guid: 6e8b5b7fc7e689d4a9ab050edb723d7d, type: 3}
  - {fileID: 8300000, guid: 3b09d59f4499d45428baa7a21e954296, type: 3}
  - {fileID: 8300000, guid: 5897aeed9b676024fbb8c694b421a861, type: 3}
  - {fileID: 8300000, guid: 2b7648d8557bb0e4e90f0b6d31774d0e, type: 3}
  - {fileID: 8300000, guid: 2b7648d8557bb0e4e90f0b6d31774d0e, type: 3}
  - {fileID: 8300000, guid: 9bb07b1799726894984295e02ffa6a36, type: 3}
  - {fileID: 8300000, guid: 42e65e088b3f4374e851b8dbd38f3df9, type: 3}
  - {fileID: 8300000, guid: e268d307595f5664a993553151ae66ad, type: 3}
  - {fileID: 8300000, guid: 8b77def52abb264489ac96711db274c6, type: 3}
